Endpoint is :
https://reqres.in/api/login

Request body is :
{
    " ": " ",
    "password": "pistol"
}

Response header date is : 
Sun, 25 Feb 2024 13:47:52 GMT

Response body is : 
{"error":"Missing email or username"}